{
  "project_info": {
    "project_number": "438825611525",
    "firebase_url": "https://ugpay-test.firebaseio.com",
    "project_id": "ugpay-test",
    "storage_bucket": "ugpay-test.appspot.com"
  },
  "client": [
    {
      "client_info": {
        "mobilesdk_app_id": "1:438825611525:android:face971abedb5cab5e876c",
        "android_client_info": {
          "package_name": "com.ugpay_test"
        }
      },
      "oauth_client": [
        {
          "client_id": "438825611525-2k95n8guj9tp51gubftfe6fh337tsto5.apps.googleusercontent.com",
          "client_type": 3
        }
      ],
      "api_key": [
        {
          "current_key": "AIzaSyAJtBnnSf_lsR_e8SpIcPylib7333Xpw6A"
        }
      ],
      "services": {
        "appinvite_service": {
          "other_platform_oauth_client": [
            {
              "client_id": "438825611525-2k95n8guj9tp51gubftfe6fh337tsto5.apps.googleusercontent.com",
              "client_type": 3
            },
            {
              "client_id": "438825611525-1q2srofk14n4rhsg690rq7bq8vc44f8r.apps.googleusercontent.com",
              "client_type": 2,
              "ios_info": {
                "bundle_id": "org.ugpay-test"
              }
            }
          ]
        }
      }
    }
  ],
  "configuration_version": "1"
}